{
	"page": 1,
	"totalPages": 2,
	"totalResults": 21,
	"results": [
		{
			"id": 66025,
			"firstAirDate": "2016-06-14",
			"genreIds": [
				80,
				18
			],
			"mediaType": "tv",
			"name": "Animal Kingdom",
			"originCountry": [
				"US"
			],
			"originalLanguage": "en",
			"originalName": "Animal Kingdom",
			"overview": "Un jeune homme de dix-sept ans emménage avec la famille Cody après le décès de sa mère, une fratrie baignant dans la criminalité gouvernée d'une main de maître par la matriarche, Smurf.",
			"popularity": 75.653,
			"voteAverage": 7.7,
			"voteCount": 318,
			"backdropPath": "/eQJwfyMqSra10ck8HOoiCrbQR32.jpg",
			"posterPath": "/rzvdKrnSRKPFI0pgqMQknDPpRC9.jpg",
			"mediaInfo": {
				"downloadStatus": [],
				"downloadStatus4k": [],
				"id": 217,
				"mediaType": "tv",
				"tmdbId": 66025,
				"tvdbId": 304262,
				"imdbId": null,
				"status": 3,
				"status4k": 1,
				"createdAt": "2022-08-08T11:06:20.000Z",
				"updatedAt": "2022-08-08T11:06:23.000Z",
				"lastSeasonChange": "2022-08-08T11:06:20.000Z",
				"mediaAddedAt": null,
				"serviceId": 0,
				"serviceId4k": null,
				"externalServiceId": 56,
				"externalServiceId4k": null,
				"externalServiceSlug": "animal-kingdom-2016",
				"externalServiceSlug4k": null,
				"ratingKey": null,
				"ratingKey4k": null,
				"seasons": [],
				"serviceUrl": "http://sonarr:8989/series/animal-kingdom-2016"
			}
		},
		{
			"id": 44629,
			"mediaType": "movie",
			"adult": false,
			"genreIds": [
				18,
				53,
				80,
				9648
			],
			"originalLanguage": "en",
			"originalTitle": "Animal Kingdom",
			"overview": "Une rue anonyme dans la banlieue de Melbourne. C’est là que vit la famille Cody. Profession: criminels. L’irruption parmi eux de Joshua, un neveu éloigné, offre à la police le moyen de les infiltrer. Il ne reste plus à Joshua qu’à choisir son camp...",
			"popularity": 11.839,
			"releaseDate": "2010-06-03",
			"title": "Animal Kingdom",
			"video": false,
			"voteAverage": 6.8,
			"voteCount": 643,
			"backdropPath": "/dxOv6K3LNbZfQaGDyx7Tp94Koy.jpg",
			"posterPath": "/qrVjc5JcaujL58SMMW9lqrp3bBX.jpg"
		},
		{
			"id": 95731,
			"firstAirDate": "2020-09-25",
			"genreIds": [
				99
			],
			"mediaType": "tv",
			"name": "Au cœur de Disney's Animal Kingdom",
			"originCountry": [],
			"originalLanguage": "en",
			"originalName": "Magic of Disney's Animal Kingdom",
			"overview": "Au cœur d’Animal Kingdom narrée par Josh Gad, une célébrité parmi les fans de Disney, nous emmène en coulisses découvrir la magie de deux des animations animalières les plus visitées au monde : le parc à thème de Disney, Animal Kingdom, et The Seas with Nemo & Friends à Epcot. Les spectateurs s’approchent au plus près de créatures parmi les plus rares et les plus belles de la planète et rencontrent les experts en soins animaliers qui ont tissé des liens stupéfiants avec les 5 000 et plus animaux du parc. Chacun des huit épisodes plonge au cœur de l’endroit le plus magique sur Terre, dévoilant les multiples facettes de sa conception et de sa gestion.",
			"popularity": 3.367,
			"voteAverage": 8,
			"voteCount": 4,
			"backdropPath": "/gMTMnd54VVAbGiodBqMTGCjM3b2.jpg",
			"posterPath": "/gvNTeRAfu4KN3dD5HUO4Nbnri07.jpg"
		},
		{
			"id": 120862,
			"mediaType": "movie",
			"adult": false,
			"genreIds": [
				35,
				18,
				10749
			],
			"originalLanguage": "en",
			"originalTitle": "The Animal Kingdom",
			"overview": "Tom Collier, jeune éditeur, a entretenu une liaison passionnée et intellectuelle avec une dessinatrice, Daisy Sage. Celle-ci ayant mis un terme à leur relation, il a fait la connaissance de Cecilia, qu'il a rapidement décidé d'épouser. Alors que les fiançailles sont annoncées, Daisy, toujours amoureuse, fait son retour, mais trop tard. Le mariage a lieu. Sous l'influence de Cecilia, Tom Collier, qui était un éditeur intègre et exigeant, fait de plus en plus de concessions commerciales. Daisy, elle demeure fidèle à elle-même. Tom Collier, se retrouve a évoluer, par amour pour sa femme, dans un milieu de conventions bourgeoises qui ne l'intéressent pas.",
			"popularity": 2.102,
			"releaseDate": "1932-12-28",
			"title": "The Animal Kingdom",
			"video": false,
			"voteAverage": 6.3,
			"voteCount": 13,
			"backdropPath": "/5P1Hx46wvCVx9D9yT8M5rdUIHZB.jpg",
			"posterPath": "/3sLWwNvS77xynAGLkbiHVXlO3UH.jpg"
		},
		{
			"id": 311015,
			"mediaType": "movie",
			"adult": false,
			"genreIds": [
				99
			],
			"originalLanguage": "en",
			"originalTitle": "Disney Parks: Disney's Animal Kingdom",
			"overview": "",
			"popularity": 1.208,
			"releaseDate": "2010-01-01",
			"title": "Disney Parks: Disney's Animal Kingdom",
			"video": true,
			"voteAverage": 9,
			"voteCount": 2,
			"backdropPath": null,
			"posterPath": "/93OEKY5vnKqGFbOyHtUAdcEz8NV.jpg"
		},
		{
			"id": 291774,
			"mediaType": "movie",
			"adult": false,
			"genreIds": [],
			"originalLanguage": "en",
			"originalTitle": "Kenya 3D: Animal Kingdom",
			"overview": "",
			"popularity": 0.6,
			"releaseDate": "2013-03-08",
			"title": "Kenya 3D: Animal Kingdom",
			"video": false,
			"voteAverage": 0,
			"voteCount": 0,
			"backdropPath": null,
			"posterPath": null
		},
		{
			"id": 640253,
			"mediaType": "movie",
			"adult": false,
			"genreIds": [],
			"originalLanguage": "it",
			"originalTitle": "Animal Kingdom",
			"overview": "",
			"popularity": 0.6,
			"releaseDate": "2016-11-12",
			"title": "Animal Kingdom",
			"video": false,
			"voteAverage": 0,
			"voteCount": 0,
			"backdropPath": null,
			"posterPath": "/vJFK5cCcIh4X4op0oeK5iY2ibPv.jpg"
		},
		{
			"id": 507434,
			"mediaType": "movie",
			"adult": false,
			"genreIds": [
				27
			],
			"originalLanguage": "en",
			"originalTitle": "Animal Kingdom",
			"overview": "",
			"popularity": 0.6,
			"releaseDate": "2017-02-25",
			"title": "Animal Kingdom",
			"video": false,
			"voteAverage": 0,
			"voteCount": 0,
			"backdropPath": "/8QxSJRLLw2m8ymrFsC2xJ26yd1n.jpg",
			"posterPath": "/s77Q92boNGgkT2J5se3gwq5N8Xp.jpg"
		},
		{
			"id": 775877,
			"mediaType": "movie",
			"adult": false,
			"genreIds": [],
			"originalLanguage": "en",
			"originalTitle": "Disney's Animal Kingdom",
			"overview": "",
			"popularity": 0.6,
			"releaseDate": "2004-05-12",
			"title": "Disney's Animal Kingdom",
			"video": true,
			"voteAverage": 0,
			"voteCount": 0,
			"backdropPath": null,
			"posterPath": null
		},
		{
			"id": 318575,
			"mediaType": "movie",
			"adult": false,
			"genreIds": [
				99
			],
			"originalLanguage": "en",
			"originalTitle": "Nature: Love in the Animal Kingdom",
			"overview": "",
			"popularity": 0.655,
			"releaseDate": "2013-11-06",
			"title": "Nature: Love in the Animal Kingdom",
			"video": true,
			"voteAverage": 9.5,
			"voteCount": 2,
			"backdropPath": "/vx2dfrXPTn0dKoyIqCEgrGvzwkd.jpg",
			"posterPath": "/1fd53UCxtLAItNI5jMtVetFuw6v.jpg"
		},
		{
			"id": 743266,
			"mediaType": "movie",
			"adult": false,
			"genreIds": [],
			"originalLanguage": "en",
			"originalTitle": "Animal Kingdom: Great Are Thy Works",
			"overview": "",
			"popularity": 0.6,
			"releaseDate": "1993-01-01",
			"title": "Animal Kingdom: Great Are Thy Works",
			"video": false,
			"voteAverage": 0,
			"voteCount": 0,
			"backdropPath": null,
			"posterPath": "/vjnsGLvymjG7dAIbjwzgFCdbhl6.jpg"
		},
		{
			"id": 828152,
			"mediaType": "movie",
			"adult": false,
			"genreIds": [
				99
			],
			"originalLanguage": "en",
			"originalTitle": "Disney's Animal Kingdom: Alive with Magic",
			"overview": "",
			"popularity": 0.6,
			"releaseDate": "2017-06-27",
			"title": "Disney's Animal Kingdom: Alive with Magic",
			"video": false,
			"voteAverage": 0,
			"voteCount": 0,
			"backdropPath": null,
			"posterPath": "/amzVT8T9Ju3KLCDnBq4Rhf3LO8j.jpg"
		},
		{
			"id": 280391,
			"mediaType": "movie",
			"adult": false,
			"genreIds": [
				12,
				35,
				16
			],
			"originalLanguage": "fr",
			"originalTitle": "Pourquoi j'ai pas mangé mon père",
			"overview": "L’histoire trépidante d’Édouard, fils aîné du roi des simiens, qui, considéré à sa naissance comme trop malingre, est rejeté par sa tribu. Il grandit loin d’eux, auprès de son ami Ian, et, incroyablement ingénieux, il découvre le feu, la chasse, l’habitat moderne, l’amour et même… l’espoir. Généreux, il veut tout partager, révolutionne l’ordre établi, et mène son peuple avec éclat et humour vers la véritable humanité… celle où on ne mange pas son père.",
			"popularity": 12.971,
			"releaseDate": "2015-04-08",
			"title": "Pourquoi j'ai pas mangé mon père",
			"video": false,
			"voteAverage": 5.3,
			"voteCount": 303,
			"backdropPath": "/msDLrSt7Ozpe6oOg4XJrsQJd2IE.jpg",
			"posterPath": "/efpzs2g1uRNcP8wPbIKSRPPH0aC.jpg"
		},
		{
			"id": 775559,
			"mediaType": "movie",
			"adult": false,
			"genreIds": [],
			"originalLanguage": "en",
			"originalTitle": "A New species of Theme Park: Disney’s Animal Kingdom",
			"overview": "",
			"popularity": 0.6,
			"releaseDate": "1998-04-14",
			"title": "A New species of Theme Park: Disney’s Animal Kingdom",
			"video": true,
			"voteAverage": 0,
			"voteCount": 0,
			"backdropPath": null,
			"posterPath": null
		},
		{
			"id": 775831,
			"mediaType": "movie",
			"adult": false,
			"genreIds": [],
			"originalLanguage": "en",
			"originalTitle": "Disney Animal Kingdom Villas: A Village Comes to Life",
			"overview": "",
			"popularity": 0.6,
			"releaseDate": "2007-06-14",
			"title": "Disney Animal Kingdom Villas: A Village Comes to Life",
			"video": true,
			"voteAverage": 0,
			"voteCount": 0,
			"backdropPath": null,
			"posterPath": null
		},
		{
			"id": 432906,
			"mediaType": "movie",
			"adult": false,
			"genreIds": [
				99
			],
			"originalLanguage": "en",
			"originalTitle": "Out in Nature: Homosexual Behaviour in the Animal Kingdom",
			"overview": "",
			"popularity": 0.6,
			"releaseDate": "2001-09-07",
			"title": "Out in Nature: Homosexual Behaviour in the Animal Kingdom",
			"video": false,
			"voteAverage": 6.8,
			"voteCount": 4,
			"backdropPath": null,
			"posterPath": "/jjxhR9ZxZ3vhauK8IDR6wIBlCLI.jpg"
		},
		{
			"id": 128887,
			"mediaType": "movie",
			"adult": false,
			"genreIds": [
				16,
				35
			],
			"originalLanguage": "ja",
			"originalTitle": "クレヨンしんちゃん オタケべ！カスカベ野生王国",
			"overview": "",
			"popularity": 5.365,
			"releaseDate": "2009-04-18",
			"title": "クレヨンしんちゃん オタケべ！カスカベ野生王国",
			"video": false,
			"voteAverage": 8.5,
			"voteCount": 10,
			"backdropPath": "/azvwXB25Wvbx2Cou3Th7lbnjrqP.jpg",
			"posterPath": "/h7LipCtdCyBOKR1By5wSP2Ufy3c.jpg"
		},
		{
			"id": 579733,
			"mediaType": "movie",
			"adult": false,
			"genreIds": [],
			"originalLanguage": "no",
			"originalTitle": "Dyreriket",
			"overview": "",
			"popularity": 0.6,
			"releaseDate": "2018-05-01",
			"title": "Dyreriket",
			"video": false,
			"voteAverage": 0,
			"voteCount": 0,
			"backdropPath": null,
			"posterPath": null
		},
		{
			"id": 111612,
			"firstAirDate": "2018-10-12",
			"genreIds": [
				10764
			],
			"mediaType": "tv",
			"name": "坂上どうぶつ王国",
			"originCountry": [
				"JP"
			],
			"originalLanguage": "ja",
			"originalName": "坂上どうぶつ王国",
			"overview": "",
			"popularity": 1.186,
			"voteAverage": 0,
			"voteCount": 0,
			"backdropPath": "/op8bK5R76L9QpwcVTnYG7nKXKsU.jpg",
			"posterPath": "/2VPq9RYaDohOT8YqTibKZMMT2Ue.jpg"
		},
		{
			"id": 156216,
			"firstAirDate": "2022-01-17",
			"genreIds": [
				16
			],
			"mediaType": "tv",
			"name": "动物王国的故事",
			"originCountry": [
				"CN"
			],
			"originalLanguage": "zh",
			"originalName": "动物王国的故事",
			"overview": "",
			"popularity": 0.6,
			"voteAverage": 0,
			"voteCount": 0,
			"backdropPath": "/uxIJQnjzIQn2MGHk17nNhoIEkxU.jpg",
			"posterPath": "/v90bqYZRUT30n22DdwahmW18LFn.jpg"
		}
	]
}